…
    ## Rows: 16063 Columns: 10
    ## ── Column specification ─────────────────────────────────────────────────────────────────────────────────────
    ## Delimiter: ","
    ## chr (3): Run_id, Sample, pep_letters
    ## dbl (7): pep_positions, count, pep_identity, total_counts, rel_count, count_mirror, rel_count_mirror
    ## 
    ## ℹ Use `spec()` to retrieve the full column specification for this data.
    ## ℹ Specify the column types or set `show_col_types = FALSE` to quiet this message.

``` r
denovo_position_letters$pep_positions = as.integer(denovo_position_letters$pep_positions)
denovo_position_letters
```

    ## # A tibble: 16,063 × 10
    ##    Run_id       Sample pep_positions pep_letters count pep_identity total_counts rel_count count_mirror
    ##    <chr>        <chr>          <int> <chr>       <dbl>        <dbl>        <dbl>     <dbl>        <dbl>
    ##  1 directag_db1 0 days            14 V               1            0            1         1           -1
    ##  2 directag_db1 0 days            15 Z               1            1            1         1            1
    ##  3 directag_db1 0 days            16 A               2            1            2         1            2
    ##  4 directag_db1 0 days            17 B              81            1           81         1           81
    ##  5 directag_db1 0 days            18 B              87            1           87         1           87
    ##  6 directag_db1 0 days            19 V              92            1           92         1           92
    ##  7 directag_db1 0 days            20 T              93            1           93         1           93
    ##  8 directag_db1 0 days            21 Z              93            1           93         1           93
    ##  9 directag_db1 0 days            22 T              93            1           93         1           93
    ## 10 directag_db1 0 days            23 M              93            1           93         1           93
    ## # ℹ 16,053 more rows
    ## # ℹ 1 more variable: rel_count_mirror <dbl>
…
denovo_position_letters
```

    ## # A tibble: 15,402 × 12
    ##    Run_id       Software DB    Sample pep_positions pep_letters count pep_identity total_counts rel_count
    ##    <chr>        <fct>    <chr> <fct>          <int> <fct>       <dbl>        <dbl>        <dbl>     <dbl>
    ##  1 directag_db1 directag DB1   0 days            17 L/I            81            1           81         1
    ##  2 directag_db1 directag DB1   0 days            18 L/I            87            1           87         1
    ##  3 directag_db1 directag DB1   0 days            19 V              92            1           92         1
    ##  4 directag_db1 directag DB1   0 days            20 T              93            1           93         1
    ##  5 directag_db1 directag DB1   0 days            21 Q/E            93            1           93         1
    ##  6 directag_db1 directag DB1   0 days            22 T              93            1           93         1
    ##  7 directag_db1 directag DB1   0 days            23 M              93            1           93         1
    ##  8 directag_db1 directag DB1   0 days            24 K              92            1           92         1
    ##  9 directag_db1 directag DB1   0 days            25 G              13            1           13         1
    ## 10 directag_db1 directag DB1   0 days            26 L/I            13            1           13         1
    ## # ℹ 15,392 more rows
    ## # ℹ 2 more variables: count_mirror <dbl>, rel_count_mirror <dbl>
…
``` r
denovo_position_acc = denovo_position_acc %>%
  filter(pep_positions<=chain_end, pep_positions>=chain_start) %>%
  separate('Run_id', into=c('Software', 'DB'), sep='_', remove = FALSE) %>%
  mutate(pep_positions = as.integer(pep_positions),
         Software = factor(Software, levels=c('novor', 'pepnovo', 'directag')),
         Sample = factor(Sample, levels=c('0 days', '4 days', '128 days'))) %>%
  mutate(DB = case_when(DB=='db1' ~ 'DB1', DB=='db2' ~ 'DB2'))
denovo_position_acc
```

    ## # A tibble: 2,772 × 6
    ##    Run_id       Software DB    Sample pep_positions pos_accuracy
    ##    <chr>        <fct>    <chr> <fct>          <int>        <dbl>
    ##  1 directag_db1 directag DB1   0 days            17            1
    ##  2 directag_db1 directag DB1   0 days            18            1
    ##  3 directag_db1 directag DB1   0 days            19            1
    ##  4 directag_db1 directag DB1   0 days            20            1
    ##  5 directag_db1 directag DB1   0 days            21            1
    ##  6 directag_db1 directag DB1   0 days            22            1
    ##  7 directag_db1 directag DB1   0 days            23            1
    ##  8 directag_db1 directag DB1   0 days            24            1
    ##  9 directag_db1 directag DB1   0 days            25            1
    ## 10 directag_db1 directag DB1   0 days            26            1
    ## # ℹ 2,762 more rows
…
dbsearch_position_letters = dbsearch_position_letters %>%
  mutate(Sample = factor(Sample, levels=c('0 days', '4 days', '128 days')),
         pep_positions = as.integer(pep_positions),
         pep_letters = factor(pep_letters, levels=names(aa_colorblind_2))) %>%
  filter(pep_positions<=chain_end, pep_positions>=chain_start) %>%
  arrange(desc(pep_positions))

dbsearch_position_letters
```

    ## # A tibble: 19,861 × 21
    ##    Run_id    Sample is_lacb gt_005fdr pep_positions pep_letters count mean_pI total_counts Search Engine  
    ##    <chr>     <fct>  <lgl>   <lgl>             <int> <fct>       <dbl>   <dbl>        <dbl> <chr>  <chr>   
    ##  1 fp_ns_db1 0 days TRUE    FALSE               178 I             105    5.44          105 Open   Fragpipe
    ##  2 fp_ns_db1 4 days TRUE    FALSE               178 I              36    6.01           36 Open   Fragpipe
    ##  3 fp_ns_db2 0 days TRUE    FALSE               178 I             189    4.87          189 Open   Fragpipe
    ##  4 fp_ns_db2 0 days TRUE    TRUE                178 I              37    4.59           37 Open   Fragpipe
    ##  5 fp_ns_db2 4 days TRUE    FALSE               178 I             127    4.70          127 Open   Fragpipe
    ##  6 fp_ns_db2 4 days TRUE    TRUE                178 I              56    4.33           56 Open   Fragpipe
    ##  7 fp_st_db1 0 days TRUE    FALSE               178 I             101    5.05          101 Open   Fragpipe
    ##  8 fp_st_db1 4 days TRUE    FALSE               178 I              35    5.94           35 Open   Fragpipe
    ##  9 fp_st_db2 0 days TRUE    FALSE               178 I             203    4.63          203 Open   Fragpipe
    ## 10 fp_st_db2 0 days TRUE    TRUE                178 I              22    4.33           22 Open   Fragpipe
    ## # ℹ 19,851 more rows
    ## # ℹ 10 more variables: Digestion <chr>, DB <chr>, Pep_length <chr>, FDR <dbl>, System <chr>,
    ## #   `Run settings` <chr>, rel_count <dbl>, correct <lgl>, count_mirror <dbl>, rel_count_mirror <dbl>
…
